ECER descriptive analyses
…
network_vec <- data_raw %>% rename(netw= contribution_network) %>% left_join(nw_inc) %>% select(X, netw_sub, year) %>% rename(ident = X) %>% filter(!is.na(netw_sub))

Joining with `by = join_by(netw)`

nrow(network_vec)

[1] 30072

Network analysis

nw_count <- network_vec %>% group_by(netw_sub) %>% count() %>% arrange(desc(n))
nw_count

# A tibble: 36 × 2
# Groups:   netw_sub [36]
   netw_sub                     n
   <chr>                    <int>
 1 Teacher Education         2473
 2 Higher Education          2355
 3 Politics of Education     2265
 4 Vocational Education      1865
 5 Inclusion                 1860
 6 Professional Development  1626
 7 Intercultural Education   1320
 8 ICT                       1252
 9 Didactics                 1248
10 Assessment                1214
# ℹ 26 more rows

nrow(nw_count)

[1] 36

nw_count_yearly <- network_vec %>% group_by(netw_sub, year) %>% count() 
nw_count_yearly

# A tibble: 552 × 3
# Groups:   netw_sub, year [552]
   netw_sub        year     n
   <chr>          <int> <int>
 1 Arts Education  2013    52
 2 Arts Education  2014    58
 3 Arts Education  2015    38
 4 Arts Education  2016    43
 5 Arts Education  2017    47
 6 Arts Education  2018    31
 7 Arts Education  2019    30
 8 Assessment      2008    46
 9 Assessment      2009    97
10 Assessment      2010    93
# ℹ 542 more rows

nw_count_yearly_spread <- nw_count_yearly %>% spread(year, n)
nw_count_yearly_spread

# A tibble: 36 × 23
# Groups:   netw_sub [36]
   netw_sub       `1998` `1999` `2000` `2001` `2002` `2003` `2004` `2005` `2006`
   <chr>           <int>  <int>  <int>  <int>  <int>  <int>  <int>  <int>  <int>
 1 Arts Education     NA     NA     NA     NA     NA     NA     NA     NA     NA
 2 Assessment         NA     NA     NA     NA     NA     NA     NA     NA     NA
 3 Childrens Rig…     NA     NA     NA     NA     NA     NA      7      6     14
 4 Communities        10     20     20     15     18      8     11     14     19
 5 Comparative E…     NA      3     25     25     18     20     30     11     15
 6 Curricula          42     18     73     53     39     23     48     30     22
 7 Didactics          NA     NA     NA     NA     NA     NA     NA     NA     31
 8 Economics          11      3      9     10     10      7     15      9     12
 9 Ethnography        NA     NA     17     24     18     30     34     30     28
10 Families and …     NA     NA     NA     NA     NA     NA     NA     NA     NA
# ℹ 26 more rows
# ℹ 13 more variables: `2007` <int>, `2008` <int>, `2009` <int>, `2010` <int>,
#   `2011` <int>, `2012` <int>, `2013` <int>, `2014` <int>, `2015` <int>,
#   `2016` <int>, `2017` <int>, `2018` <int>, `2019` <int>
…
